module gitlab/com/robbawebba/robbawebba.gitlab.io

go 1.14

require (
	cloud.google.com/go v0.60.0 // indirect
	cloud.google.com/go/storage v1.10.0 // indirect
	github.com/Azure/azure-pipeline-go v0.2.3 // indirect
	github.com/Azure/azure-storage-blob-go v0.10.0 // indirect
	github.com/aws/aws-sdk-go v1.33.5 // indirect
	github.com/bep/golibsass v0.7.0 // indirect
	github.com/fsnotify/fsnotify v1.4.9 // indirect
	github.com/gobuffalo/envy v1.9.0 // indirect
	github.com/gohugoio/hugo v0.73.0 // indirect
	github.com/hashicorp/golang-lru v0.5.4 // indirect
	github.com/jdkato/prose v1.2.0 // indirect
	github.com/kyokomi/emoji v2.2.4+incompatible // indirect
	github.com/magefile/mage v1.10.0 // indirect
	github.com/markbates/inflect v1.0.4 // indirect
	github.com/mattn/go-runewidth v0.0.9 // indirect
	github.com/mitchellh/mapstructure v1.3.2 // indirect
	github.com/nicksnyder/go-i18n v1.10.1 // indirect
	github.com/niklasfasching/go-org v1.3.0 // indirect
	github.com/pelletier/go-toml v1.8.0 // indirect
	github.com/rogpeppe/go-internal v1.6.0 // indirect
	github.com/spf13/afero v1.3.1 // indirect
	github.com/spf13/cobra v1.0.0 // indirect
	github.com/spf13/viper v1.7.0 // indirect
	github.com/tdewolff/minify/v2 v2.7.6 // indirect
	github.com/yuin/goldmark v1.1.33 // indirect
	go.opencensus.io v0.22.4 // indirect
	gocloud.dev v0.20.0 // indirect
	golang.org/x/image v0.0.0-20200618115811-c13761719519 // indirect
	golang.org/x/net v0.0.0-20200707034311-ab3426394381 // indirect
	golang.org/x/sys v0.0.0-20200625212154-ddb9806d33ae // indirect
	golang.org/x/text v0.3.3 // indirect
	golang.org/x/tools v0.0.0-20200710042808-f1c4188a97a1 // indirect
	google.golang.org/api v0.29.0 // indirect
	google.golang.org/genproto v0.0.0-20200710124503-20a17af7bd0e // indirect
	google.golang.org/grpc v1.30.0 // indirect
	gopkg.in/ini.v1 v1.57.0 // indirect
)
